{
  "elen@gmail.com": {
    "password": "1234",
    "firstName": "Jane",
    "lastName": "Robertson",
    "phone": "2175550113",
    "img": "assets/img.png"
  },

  "joe@gmail.com": {
    "password": "1234",
    "firstName": "Joe",
    "lastName": "Geller",
    "phone": "2125520213",
    "img": "assets/img.png"
  }
}
